{
	"info": {
		"_postman_id": "9adef4cb-ac01-4fb3-ba2f-0d7eb6755c86",
		"name": "Leccion5",
		"schema": "https://schema.getpostman.com/json/collection/v2.1.0/collection.json"
	},
	"item": [
		{
			"name": "Ejercicio1",
			"item": [
				{
					"name": "/",
					"request": {
						"method": "GET",
						"header": [],
						"url": {
							"raw": "localhost:3000",
							"host": [
								"localhost"
							],
							"port": "3000"
						}
					},
					"response": []
				}
			]
		},
		{
			"name": "Ejercicio2",
			"item": [
				{
					"name": "/curso",
					"request": {
						"method": "GET",
						"header": [],
						"url": {
							"raw": "http://localhost:3000/curso",
							"protocol": "http",
							"host": [
								"localhost"
							],
							"port": "3000",
							"path": [
								"curso"
							]
						}
					},
					"response": []
				},
				{
					"name": "/test",
					"request": {
						"method": "GET",
						"header": [],
						"url": {
							"raw": "http://localhost:3000/test",
							"protocol": "http",
							"host": [
								"localhost"
							],
							"port": "3000",
							"path": [
								"test"
							]
						}
					},
					"response": []
				}
			]
		},
		{
			"name": "Ejercicio3",
			"item": [
				{
					"name": "/curso",
					"request": {
						"method": "GET",
						"header": [],
						"url": {
							"raw": "http://localhost:3000/curso",
							"protocol": "http",
							"host": [
								"localhost"
							],
							"port": "3000",
							"path": [
								"curso"
							]
						}
					},
					"response": []
				},
				{
					"name": "/message",
					"request": {
						"method": "GET",
						"header": [],
						"url": {
							"raw": "http://localhost:3000/foo",
							"protocol": "http",
							"host": [
								"localhost"
							],
							"port": "3000",
							"path": [
								"foo"
							]
						}
					},
					"response": []
				},
				{
					"name": "/foo",
					"request": {
						"method": "GET",
						"header": [],
						"url": {
							"raw": "http://localhost:3000/foo",
							"protocol": "http",
							"host": [
								"localhost"
							],
							"port": "3000",
							"path": [
								"foo"
							]
						}
					},
					"response": []
				}
			]
		},
		{
			"name": "Ejercicio4",
			"item": [
				{
					"name": "/curso",
					"request": {
						"method": "GET",
						"header": [],
						"url": {
							"raw": "http://localhost:3000/curso",
							"protocol": "http",
							"host": [
								"localhost"
							],
							"port": "3000",
							"path": [
								"curso"
							]
						}
					},
					"response": []
				},
				{
					"name": "/message",
					"request": {
						"method": "GET",
						"header": [],
						"url": {
							"raw": "http://localhost:3000/foo",
							"protocol": "http",
							"host": [
								"localhost"
							],
							"port": "3000",
							"path": [
								"foo"
							]
						}
					},
					"response": []
				},
				{
					"name": "/foo",
					"request": {
						"method": "GET",
						"header": [],
						"url": {
							"raw": "http://localhost:3000/foo",
							"protocol": "http",
							"host": [
								"localhost"
							],
							"port": "3000",
							"path": [
								"foo"
							]
						}
					},
					"response": []
				}
			]
		},
		{
			"name": "Ejercicio5",
			"item": [
				{
					"name": "/foo",
					"request": {
						"method": "GET",
						"header": [],
						"url": {
							"raw": "http://localhost:3000/foo",
							"protocol": "http",
							"host": [
								"localhost"
							],
							"port": "3000",
							"path": [
								"foo"
							]
						}
					},
					"response": []
				},
				{
					"name": "/data",
					"request": {
						"method": "POST",
						"header": [],
						"body": {
							"mode": "raw",
							"raw": "{\n    \"message\": \"este es el contenido del body\",\n    \"tipo\": \"esto es una request de tipo POST\"\n}",
							"options": {
								"raw": {
									"language": "json"
								}
							}
						},
						"url": {
							"raw": "http://localhost:3000/data",
							"protocol": "http",
							"host": [
								"localhost"
							],
							"port": "3000",
							"path": [
								"data"
							]
						}
					},
					"response": []
				},
				{
					"name": "/data",
					"request": {
						"method": "GET",
						"header": [],
						"url": {
							"raw": "http://localhost:3000/data",
							"protocol": "http",
							"host": [
								"localhost"
							],
							"port": "3000",
							"path": [
								"data"
							]
						}
					},
					"response": []
				}
			]
		},
		{
			"name": "Ejercicio6",
			"item": [
				{
					"name": "/api/messages",
					"request": {
						"method": "GET",
						"header": [],
						"url": {
							"raw": "http://localhost:3000/api/messages",
							"protocol": "http",
							"host": [
								"localhost"
							],
							"port": "3000",
							"path": [
								"api",
								"messages"
							]
						}
					},
					"response": []
				},
				{
					"name": "/api/thing",
					"request": {
						"method": "GET",
						"header": [],
						"url": {
							"raw": "http://localhost:3000/api/thing",
							"protocol": "http",
							"host": [
								"localhost"
							],
							"port": "3000",
							"path": [
								"api",
								"thing"
							]
						}
					},
					"response": []
				},
				{
					"name": "/api/messages",
					"request": {
						"method": "POST",
						"header": [],
						"body": {
							"mode": "raw",
							"raw": "{\n    \"email\": \"kjhdkfjshfg@kjldsfhgkfs.com\",\n    \"message\": \"Hola que tal\"\n}",
							"options": {
								"raw": {
									"language": "json"
								}
							}
						},
						"url": {
							"raw": "http://localhost:3000/api/messages",
							"protocol": "http",
							"host": [
								"localhost"
							],
							"port": "3000",
							"path": [
								"api",
								"messages"
							]
						}
					},
					"response": []
				}
			]
		}
	]
}